{
    "key": "group_596552da8b0c0",
    "title": "Component Options",
    "fields": [
        {
            "key": "field_596552fd9e837",
            "label": "Column Width",
            "name": "width",
            "type": "select",
            "instructions": "Select the column width of this component. Components will automatically wrap left to right.",
            "required": 0,
            "conditional_logic": 0,
            "wrapper": {
                "width": "",
                "class": "",
                "id": ""
            },
            "choices": {
                "quarter": "Quarter (25%)",
                "third": "Third (33%)",
                "half": "Half (50%)",
                "two_thirds": "Two Thirds (66%)",
                "three_quarters": "Three Quarters (75%)",
                "full": "Full (100%)"
            },
            "default_value": [
                "full"
            ],
            "allow_null": 0,
            "multiple": 0,
            "ui": 0,
            "ajax": 0,
            "return_format": "value",
            "placeholder": ""
        },
        {
            "key": "field_5965535b9e838",
            "label": "Buttons",
            "name": "buttons",
            "type": "repeater",
            "instructions": "You can add up to two buttons to the bottom of this component.",
            "required": 0,
            "conditional_logic": 0,
            "wrapper": {
                "width": "",
                "class": "",
                "id": ""
            },
            "collapsed": "",
            "min": 0,
            "max": 2,
            "layout": "table",
            "button_label": "Add Button",
            "sub_fields": [
                {
                    "key": "field_596553649e839",
                    "label": "Label",
                    "name": "label",
                    "type": "text",
                    "instructions": "",
                    "required": 0,
                    "conditional_logic": 0,
                    "wrapper": {
                        "width": "",
                        "class": "",
                        "id": ""
                    },
                    "default_value": "",
                    "placeholder": "",
                    "prepend": "",
                    "append": "",
                    "maxlength": ""
                },
                {
                    "key": "field_596553779e83a",
                    "label": "Link Type",
                    "name": "link_type",
                    "type": "select",
                    "instructions": "",
                    "required": 0,
                    "conditional_logic": 0,
                    "wrapper": {
                        "width": "",
                        "class": "",
                        "id": ""
                    },
                    "choices": {
                        "internal": "Internal",
                        "external": "External\/Custom"
                    },
                    "default_value": [],
                    "allow_null": 0,
                    "multiple": 0,
                    "ui": 0,
                    "ajax": 0,
                    "return_format": "value",
                    "placeholder": ""
                },
                {
                    "key": "field_5965539f9e83b",
                    "label": "Link Internal",
                    "name": "link_internal",
                    "type": "page_link",
                    "instructions": "",
                    "required": 0,
                    "conditional_logic": [
                        [
                            {
                                "field": "field_596553779e83a",
                                "operator": "==",
                                "value": "internal"
                            }
                        ]
                    ],
                    "wrapper": {
                        "width": "",
                        "class": "",
                        "id": ""
                    },
                    "post_type": [
                        "page",
                        "media"
                    ],
                    "taxonomy": [],
                    "allow_null": 0,
                    "allow_archives": 1,
                    "multiple": 0
                },
                {
                    "key": "field_596553c19e83c",
                    "label": "Link External\/Custom",
                    "name": "link_external",
                    "type": "text",
                    "instructions": "",
                    "required": 0,
                    "conditional_logic": [
                        [
                            {
                                "field": "field_596553779e83a",
                                "operator": "==",
                                "value": "external"
                            }
                        ]
                    ],
                    "wrapper": {
                        "width": "",
                        "class": "",
                        "id": ""
                    },
                    "default_value": "",
                    "placeholder": "",
                    "prepend": "",
                    "append": "",
                    "maxlength": ""
                },
                {
                    "key": "field_596586f48113e",
                    "label": "Icon",
                    "name": "icon",
                    "type": "select",
                    "instructions": "",
                    "required": 0,
                    "conditional_logic": 0,
                    "wrapper": {
                        "width": "",
                        "class": "",
                        "id": ""
                    },
                    "choices": {
                        "none": "None",
                        "icon-arrow-thick-down": "icon-arrow-thick-down",
                        "icon-arrow-thick-left": "icon-arrow-thick-left",
                        "icon-arrow-thick-right": "icon-arrow-thick-right",
                        "icon-arrow-thick-up": "icon-arrow-thick-up",
                        "icon-arrow-thin-down": "icon-arrow-thin-down",
                        "icon-arrow-thin-left": "icon-arrow-thin-left",
                        "icon-arrow-thin-right": "icon-arrow-thin-right",
                        "icon-arrow-thin-up": "icon-arrow-thin-up",
                        "icon-circle-email": "icon-circle-email",
                        "icon-circle-phone": "icon-circle-phone",
                        "icon-circle-skype": "icon-circle-skype",
                        "icon-email": "icon-email",
                        "icon-facebook": "icon-facebook",
                        "icon-linkedin": "icon-linkedin",
                        "icon-search": "icon-search",
                        "icon-twitter": "icon-twitter",
                        "icon-youtube": "icon-youtube",
                        "icon-close": "icon-close",
                        "icon-download": "icon-download",
                        "icon-email-send": "icon-email-send",
                        "icon-records": "icon-records",
                        "icon-comment": "icon-comment",
                        "icon-document-edit": "icon-document-edit",
                        "icon-document": "icon-document",
                        "icon-email-alt": "icon-email-alt",
                        "icon-film": "icon-film",
                        "icon-tools": "icon-tools",
                        "icon-user-access": "icon-user-access",
                        "icon-directions": "icon-directions"
                    },
                    "default_value": [],
                    "allow_null": 0,
                    "multiple": 0,
                    "ui": 0,
                    "ajax": 0,
                    "return_format": "value",
                    "placeholder": ""
                },
                {
                    "key": "field_597a945b5afc7",
                    "label": "Open in new tab",
                    "name": "link_target",
                    "type": "checkbox",
                    "instructions": "",
                    "required": 0,
                    "conditional_logic": 0,
                    "wrapper": {
                        "width": "",
                        "class": "",
                        "id": ""
                    },
                    "choices": {
                        "yes": "Yes"
                    },
                    "allow_custom": 0,
                    "save_custom": 0,
                    "default_value": [],
                    "layout": "vertical",
                    "toggle": 0,
                    "return_format": "value"
                }
            ]
        },
        {
            "key": "field_5967e418ef23f",
            "label": "Content",
            "name": "content",
            "type": "wysiwyg",
            "instructions": "You can add additional text content below this component.",
            "required": 0,
            "conditional_logic": 0,
            "wrapper": {
                "width": "",
                "class": "",
                "id": ""
            },
            "default_value": "",
            "tabs": "all",
            "toolbar": "full",
            "media_upload": 1,
            "delay": 0
        }
    ],
    "location": [
        [
            {
                "param": "post_type",
                "operator": "==",
                "value": "post"
            }
        ]
    ],
    "menu_order": 0,
    "position": "normal",
    "style": "default",
    "label_placement": "top",
    "instruction_placement": "label",
    "hide_on_screen": "",
    "active": 1,
    "description": "",
    "modified": 1503793319
}