{
    "key": "group_58916da59fd7a",
    "title": "Page Sections",
    "fields": [
        {
            "key": "field_58916db845ddf",
            "label": "Sections",
            "name": "sections",
            "type": "flexible_content",
            "value": null,
            "instructions": "",
            "required": 0,
            "conditional_logic": 0,
            "wrapper": {
                "width": "",
                "class": "",
                "id": ""
            },
            "layouts": {
                "59647ddf15e39": {
                    "key": "59647ddf15e39",
                    "name": "section_page_h2",
                    "label": "Section Page H2",
                    "display": "block",
                    "sub_fields": [
                        {
                            "key": "field_59647dec15e3a",
                            "label": "Heading",
                            "name": "heading",
                            "type": "text",
                            "value": null,
                            "instructions": "",
                            "required": 0,
                            "conditional_logic": 0,
                            "wrapper": {
                                "width": "",
                                "class": "",
                                "id": ""
                            },
                            "default_value": "",
                            "placeholder": "",
                            "prepend": "",
                            "append": "",
                            "maxlength": ""
                        }
                    ],
                    "min": "",
                    "max": ""
                },
                "596554cd9d24b": {
                    "key": "596554cd9d24b",
                    "name": "content_row",
                    "label": "Content - Row",
                    "display": "block",
                    "sub_fields": [
                        {
                            "key": "field_596554cd9d24c",
                            "label": "Columns",
                            "name": "columns",
                            "type": "clone",
                            "value": null,
                            "instructions": "",
                            "required": 0,
                            "conditional_logic": 0,
                            "wrapper": {
                                "width": "",
                                "class": "",
                                "id": ""
                            },
                            "clone": [
                                "group_596481f0ddd46"
                            ],
                            "display": "seamless",
                            "layout": "block",
                            "prefix_label": 0,
                            "prefix_name": 0
                        }
                    ],
                    "min": "",
                    "max": ""
                },
                "596c12ac1fc91": {
                    "key": "596c12ac1fc91",
                    "name": "careers",
                    "label": "Careers",
                    "display": "block",
                    "sub_fields": [
                        {
                            "key": "field_596c1490f1c02",
                            "label": "Positions",
                            "name": "",
                            "type": "tab",
                            "instructions": "",
                            "required": 0,
                            "conditional_logic": 0,
                            "wrapper": {
                                "width": "",
                                "class": "",
                                "id": ""
                            },
                            "placement": "top",
                            "endpoint": 0
                        },
                        {
                            "key": "field_596c1372f1bfe",
                            "label": "Sort",
                            "name": "sort",
                            "type": "select",
                            "value": null,
                            "instructions": "",
                            "required": 0,
                            "conditional_logic": 0,
                            "wrapper": {
                                "width": "",
                                "class": "",
                                "id": ""
                            },
                            "choices": {
                                "date_desc": "Date (newest first)",
                                "date_asc": "Date (oldest first)",
                                "title_asc": "Title\/Name (A to Z)"
                            },
                            "default_value": [
                                "date_desc"
                            ],
                            "allow_null": 0,
                            "multiple": 0,
                            "ui": 0,
                            "ajax": 0,
                            "return_format": "value",
                            "placeholder": ""
                        },
                        {
                            "key": "field_596c12f2f1bfc",
                            "label": "Show Positions",
                            "name": "show_positions",
                            "type": "select",
                            "value": null,
                            "instructions": "",
                            "required": 0,
                            "conditional_logic": 0,
                            "wrapper": {
                                "width": "",
                                "class": "",
                                "id": ""
                            },
                            "choices": {
                                "all": "All Positions",
                                "latest": "Latest Positions",
                                "specific": "Specific Positions"
                            },
                            "default_value": [],
                            "allow_null": 0,
                            "multiple": 0,
                            "ui": 0,
                            "ajax": 0,
                            "return_format": "value",
                            "placeholder": ""
                        },
                        {
                            "key": "field_596c1347f1bfd",
                            "label": "How Many Positions?",
                            "name": "how_many",
                            "type": "number",
                            "value": null,
                            "instructions": "",
                            "required": 0,
                            "conditional_logic": [
                                [
                                    {
                                        "field": "field_596c12f2f1bfc",
                                        "operator": "==",
                                        "value": "latest"
                                    }
                                ]
                            ],
                            "wrapper": {
                                "width": "",
                                "class": "",
                                "id": ""
                            },
                            "default_value": "",
                            "placeholder": "",
                            "prepend": "",
                            "append": "",
                            "min": "",
                            "max": "",
                            "step": ""
                        },
                        {
                            "key": "field_596c13e0f1bff",
                            "label": "Specific Positions",
                            "name": "specific_positions",
                            "type": "relationship",
                            "value": null,
                            "instructions": "",
                            "required": 0,
                            "conditional_logic": [
                                [
                                    {
                                        "field": "field_596c12f2f1bfc",
                                        "operator": "==",
                                        "value": "specific"
                                    }
                                ]
                            ],
                            "wrapper": {
                                "width": "",
                                "class": "",
                                "id": ""
                            },
                            "post_type": [
                                "position"
                            ],
                            "taxonomy": [],
                            "filters": [
                                "search"
                            ],
                            "elements": "",
                            "min": "",
                            "max": "",
                            "return_format": "id"
                        },
                        {
                            "key": "field_596c1486f1c01",
                            "label": "Options",
                            "name": "",
                            "type": "tab",
                            "instructions": "",
                            "required": 0,
                            "conditional_logic": 0,
                            "wrapper": {
                                "width": "",
                                "class": "",
                                "id": ""
                            },
                            "placement": "top",
                            "endpoint": 0
                        },
                        {
                            "key": "field_596c141af1c00",
                            "label": "Section Options",
                            "name": "section_options",
                            "type": "clone",
                            "value": null,
                            "instructions": "",
                            "required": 0,
                            "conditional_logic": 0,
                            "wrapper": {
                                "width": "",
                                "class": "",
                                "id": ""
                            },
                            "clone": [
                                "field_59684f4ca263c",
                                "field_5965ab0485396",
                                "field_5967f99bf3542",
                                "field_596852595c595"
                            ],
                            "display": "seamless",
                            "layout": "block",
                            "prefix_label": 0,
                            "prefix_name": 0
                        }
                    ],
                    "min": "",
                    "max": ""
                },
                "59715d65c6e19": {
                    "key": "59715d65c6e19",
                    "name": "form",
                    "label": "Form",
                    "display": "block",
                    "sub_fields": [
                        {
                            "key": "field_59715d74c6e1a",
                            "label": "Form",
                            "name": "form",
                            "type": "gravity_forms_field",
                            "value": null,
                            "instructions": "",
                            "required": 0,
                            "conditional_logic": 0,
                            "wrapper": {
                                "width": "",
                                "class": "",
                                "id": ""
                            },
                            "allow_null": 0,
                            "allow_multiple": 0
                        }
                    ],
                    "min": "",
                    "max": ""
                }
            },
            "button_label": "Add Section",
            "min": "",
            "max": ""
        }
    ],
    "location": [
        [
            {
                "param": "post_type",
                "operator": "==",
                "value": "post"
            }
        ]
    ],
    "menu_order": 0,
    "position": "normal",
    "style": "default",
    "label_placement": "top",
    "instruction_placement": "label",
    "hide_on_screen": [
        "the_content"
    ],
    "active": 1,
    "description": "",
    "modified": 1509033974
}